lab3/lab3_template/waveform.vcd
$version Generated by VerilatedVcd $end
$timescale 1s $end

 $scope module TOP $end
  $var wire  1 ~ clk $end
  $var wire 32 "! r[0] [31:0] $end
  $var wire 32 ,! r[10] [31:0] $end
  $var wire 32 -! r[11] [31:0] $end
  $var wire 32 .! r[12] [31:0] $end
  $var wire 32 /! r[13] [31:0] $end
  $var wire 32 0! r[14] [31:0] $end
  $var wire 32 1! r[15] [31:0] $end
  $var wire 32 2! r[16] [31:0] $end
  $var wire 32 3! r[17] [31:0] $end
  $var wire 32 4! r[18] [31:0] $end
  $var wire 32 5! r[19] [31:0] $end
  $var wire 32 #! r[1] [31:0] $end
  $var wire 32 6! r[20] [31:0] $end
  $var wire 32 7! r[21] [31:0] $end
  $var wire 32 8! r[22] [31:0] $end
  $var wire 32 9! r[23] [31:0] $end
  $var wire 32 :! r[24] [31:0] $end
  $var wire 32 ;! r[25] [31:0] $end
  $var wire 32 <! r[26] [31:0] $end
  $var wire 32 =! r[27] [31:0] $end
  $var wire 32 >! r[28] [31:0] $end
  $var wire 32 ?! r[29] [31:0] $end
  $var wire 32 $! r[2] [31:0] $end
  $var wire 32 @! r[30] [31:0] $end
  $var wire 32 A! r[31] [31:0] $end
  $var wire 32 %! r[3] [31:0] $end
  $var wire 32 &! r[4] [31:0] $end
  $var wire 32 '! r[5] [31:0] $end
  $var wire 32 (! r[6] [31:0] $end
  $var wire 32 )! r[7] [31:0] $end
  $var wire 32 *! r[8] [31:0] $end
  $var wire 32 +! r[9] [31:0] $end
  $var wire  1 !! start $end
  $scope module PipelineCPU $end
   $var wire  4 + ALUCtrl [3:0] $end
   $var wire  2 u ALUOp [1:0] $end
   $var wire 32 * ALUOut [31:0] $end
   $var wire  1 { ALUSrc $end
   $var wire 32 ) ALUmux_out [31:0] $end
   $var wire  1 x Breq $end
   $var wire  1 w Brlt $end
   $var wire  2 v PCSel [1:0] $end
   $var wire 32 ( adder2_sum [31:0] $end
   $var wire  1 ~ clk $end
   $var wire 32 & imm [31:0] $end
   $var wire 32 ' imm_shift [31:0] $end
   $var wire 32 % ins_out [31:0] $end
   $var wire  1 y memRead $end
   $var wire 32 C! memRead_out [31:0] $end
   $var wire  1 z memWrite $end
   $var wire  2 t memtoReg [1:0] $end
   $var wire 32 B! pc_mux_out [31:0] $end
   $var wire 32 # pc_out [31:0] $end
   $var wire 32 $ pc_plus4 [31:0] $end
   $var wire 32 "! r[0] [31:0] $end
   $var wire 32 ,! r[10] [31:0] $end
   $var wire 32 -! r[11] [31:0] $end
   $var wire 32 .! r[12] [31:0] $end
   $var wire 32 /! r[13] [31:0] $end
   $var wire 32 0! r[14] [31:0] $end
   $var wire 32 1! r[15] [31:0] $end
   $var wire 32 2! r[16] [31:0] $end
   $var wire 32 3! r[17] [31:0] $end
   $var wire 32 4! r[18] [31:0] $end
   $var wire 32 5! r[19] [31:0] $end
   $var wire 32 #! r[1] [31:0] $end
   $var wire 32 6! r[20] [31:0] $end
   $var wire 32 7! r[21] [31:0] $end
   $var wire 32 8! r[22] [31:0] $end
   $var wire 32 9! r[23] [31:0] $end
   $var wire 32 :! r[24] [31:0] $end
   $var wire 32 ;! r[25] [31:0] $end
   $var wire 32 <! r[26] [31:0] $end
   $var wire 32 =! r[27] [31:0] $end
   $var wire 32 >! r[28] [31:0] $end
   $var wire 32 ?! r[29] [31:0] $end
   $var wire 32 $! r[2] [31:0] $end
   $var wire 32 @! r[30] [31:0] $end
   $var wire 32 A! r[31] [31:0] $end
   $var wire 32 %! r[3] [31:0] $end
   $var wire 32 &! r[4] [31:0] $end
   $var wire 32 '! r[5] [31:0] $end
   $var wire 32 (! r[6] [31:0] $end
   $var wire 32 )! r[7] [31:0] $end
   $var wire 32 *! r[8] [31:0] $end
   $var wire 32 +! r[9] [31:0] $end
   $var wire 32 r readData1 [31:0] $end
   $var wire 32 s readData2 [31:0] $end
   $var wire 32 / reg1_inst_out [31:0] $end
   $var wire 32 . reg1_pc_4_o [31:0] $end
   $var wire 32 - reg1_pc_o [31:0] $end
   $var wire  1 > reg2_ALUSrc $end
   $var wire  2 9 reg2_ALUop [1:0] $end
   $var wire  3 ; reg2_funct3 [2:0] $end
   $var wire  1 @ reg2_funct7 $end
   $var wire 32 3 reg2_imm [31:0] $end
   $var wire  1 = reg2_memRead $end
   $var wire  1 < reg2_memWrite $end
   $var wire  2 8 reg2_mem_to_reg [1:0] $end
   $var wire 32 0 reg2_pc_4 [31:0] $end
   $var wire 32 1 reg2_rd1 [31:0] $end
   $var wire 32 2 reg2_rd2 [31:0] $end
   $var wire  1 ? reg2_regWrite $end
   $var wire  5 6 reg2_writeReg [4:0] $end
   $var wire 32 j reg3_ALUResult [31:0] $end
   $var wire  1 p reg3_memRead $end
   $var wire  1 A reg3_memWrite $end
   $var wire  2 : reg3_mem_to_reg [1:0] $end
   $var wire 32 4 reg3_pc_4 [31:0] $end
   $var wire 32 5 reg3_rd2 [31:0] $end
   $var wire  1 B reg3_regWrite $end
   $var wire  5 7 reg3_writeReg [4:0] $end
   $var wire 32 l reg4_ALUResult [31:0] $end
   $var wire  2 o reg4_mem_to_reg [1:0] $end
   $var wire 32 k reg4_pc_4 [31:0] $end
   $var wire 32 m reg4_readDataResult [31:0] $end
   $var wire  1 q reg4_regWrite $end
   $var wire  5 n reg4_writeReg [4:0] $end
   $var wire  1 | regWrite $end
   $var wire  1 !! start $end
   $var wire 32 i writeData [31:0] $end
   $var wire  1 , zero $end
   $scope module EX_MEM_reg $end
    $var wire 32 * ALU_result_i [31:0] $end
    $var wire 32 j ALU_result_o [31:0] $end
    $var wire  1 ~ clk $end
    $var wire  1 = memRead_i $end
    $var wire  1 p memRead_o $end
    $var wire  1 < memWrite_i $end
    $var wire  1 A memWrite_o $end
    $var wire  2 8 mem_to_reg_i [1:0] $end
    $var wire  2 : mem_to_reg_o [1:0] $end
    $var wire 32 0 pc_4_i [31:0] $end
    $var wire 32 4 pc_4_o [31:0] $end
    $var wire 32 2 rd2_i [31:0] $end
    $var wire 32 5 rd2_o [31:0] $end
    $var wire  1 ? regWrite_i $end
    $var wire  1 B regWrite_o $end
    $var wire  1 !! rst $end
    $var wire  5 6 writeReg_i [4:0] $end
    $var wire  5 7 writeReg_o [4:0] $end
   $upscope $end
   $scope module ID_EX_reg $end
    $var wire  1 { ALUSrc_i $end
    $var wire  1 > ALUSrc_o $end
    $var wire  2 u ALUop_i [1:0] $end
    $var wire  2 9 ALUop_o [1:0] $end
    $var wire  1 ~ clk $end
    $var wire  3 D funct3_i [2:0] $end
    $var wire  3 ; funct3_o [2:0] $end
    $var wire  1 C funct7_i $end
    $var wire  1 @ funct7_o $end
    $var wire 32 & imm_i [31:0] $end
    $var wire 32 3 imm_o [31:0] $end
    $var wire  1 y memRead_i $end
    $var wire  1 = memRead_o $end
    $var wire  1 z memWrite_i $end
    $var wire  1 < memWrite_o $end
    $var wire  2 t mem_to_reg_i [1:0] $end
    $var wire  2 8 mem_to_reg_o [1:0] $end
    $var wire 32 . pc_4_i [31:0] $end
    $var wire 32 0 pc_4_o [31:0] $end
    $var wire 32 r rd1_i [31:0] $end
    $var wire 32 1 rd1_o [31:0] $end
    $var wire 32 s rd2_i [31:0] $end
    $var wire 32 2 rd2_o [31:0] $end
    $var wire  1 | regWrite_i $end
    $var wire  1 ? regWrite_o $end
    $var wire  1 !! rst $end
    $var wire  5 E writeReg_i [4:0] $end
    $var wire  5 6 writeReg_o [4:0] $end
   $upscope $end
   $scope module IF_ID_reg $end
    $var wire  1 ~ clk $end
    $var wire 32 % inst_i [31:0] $end
    $var wire 32 / inst_o [31:0] $end
    $var wire 32 $ pc_4_i [31:0] $end
    $var wire 32 . pc_4_o [31:0] $end
    $var wire 32 # pc_i [31:0] $end
    $var wire 32 - pc_o [31:0] $end
    $var wire  1 !! rst $end
   $upscope $end
   $scope module MEM_WB_reg $end
    $var wire 32 j ALU_result_i [31:0] $end
    $var wire 32 l ALU_result_o [31:0] $end
    $var wire  1 ~ clk $end
    $var wire  2 : mem_to_reg_i [1:0] $end
    $var wire  2 o mem_to_reg_o [1:0] $end
    $var wire 32 4 pc_4_i [31:0] $end
    $var wire 32 k pc_4_o [31:0] $end
    $var wire 32 C! readDataResult_i [31:0] $end
    $var wire 32 m readDataResult_o [31:0] $end
    $var wire  1 B regWrite_i $end
    $var wire  1 q regWrite_o $end
    $var wire  1 !! rst $end
    $var wire  5 7 writeReg_i [4:0] $end
    $var wire  5 n writeReg_o [4:0] $end
   $upscope $end
   $scope module m_ALU $end
    $var wire 32 1 A [31:0] $end
    $var wire 32 * ALUOut [31:0] $end
    $var wire  4 + ALUctl [3:0] $end
    $var wire 32 ) B [31:0] $end
    $var wire  1 , zero $end
   $upscope $end
   $scope module m_ALUCtrl $end
    $var wire  4 + ALUCtl [3:0] $end
    $var wire  2 9 ALUOp [1:0] $end
    $var wire  3 ; funct3 [2:0] $end
    $var wire  1 @ funct7 $end
   $upscope $end
   $scope module m_Adder_1 $end
    $var wire 32 # a [31:0] $end
    $var wire 32 D! b [31:0] $end
    $var wire 32 $ sum [31:0] $end
   $upscope $end
   $scope module m_Adder_2 $end
    $var wire 32 - a [31:0] $end
    $var wire 32 & b [31:0] $end
    $var wire 32 ( sum [31:0] $end
   $upscope $end
   $scope module m_BranchComp $end
    $var wire 32 r A [31:0] $end
    $var wire 32 s B [31:0] $end
    $var wire  1 x BrEq $end
    $var wire  1 w BrLT $end
   $upscope $end
   $scope module m_Control $end
    $var wire  2 u ALUOp [1:0] $end
    $var wire  1 { ALUSrc $end
    $var wire  1 x BrEq $end
    $var wire  1 w BrLT $end
    $var wire  2 v PCSel [1:0] $end
    $var wire 10 } ctrl [9:0] $end
    $var wire  3 D funct3 [2:0] $end
    $var wire  1 y memRead $end
    $var wire  1 z memWrite $end
    $var wire  2 t memtoReg [1:0] $end
    $var wire  7 F opcode [6:0] $end
    $var wire  1 | regWrite $end
   $upscope $end
   $scope module m_DataMemory $end
    $var wire 32 j address [31:0] $end
    $var wire  1 ~ clk $end
    $var wire  1 p memRead $end
    $var wire  1 A memWrite $end
    $var wire 32 C! readData [31:0] $end
    $var wire  1 !! rst $end
    $var wire 32 5 writeData [31:0] $end
   $upscope $end
   $scope module m_ImmGen $end
    $var wire 32 & imm [31:0] $end
    $var wire 32 / inst [31:0] $end
    $var wire  7 F opcode [6:0] $end
   $upscope $end
   $scope module m_InstMem $end
    $var wire 32 % inst [31:0] $end
    $var wire 32 # readAddr [31:0] $end
   $upscope $end
   $scope module m_Mux_ALU $end
    $var wire 32 ) out [31:0] $end
    $var wire 32 2 s0 [31:0] $end
    $var wire 32 3 s1 [31:0] $end
    $var wire  1 > sel $end
    $var wire 32 E! size [31:0] $end
   $upscope $end
   $scope module m_Mux_PC $end
    $var wire 32 B! out [31:0] $end
    $var wire 32 $ s0 [31:0] $end
    $var wire 32 ( s1 [31:0] $end
    $var wire 32 * s2 [31:0] $end
    $var wire  2 v sel [1:0] $end
    $var wire 32 E! size [31:0] $end
   $upscope $end
   $scope module m_Mux_WriteData $end
    $var wire 32 i out [31:0] $end
    $var wire 32 l s0 [31:0] $end
    $var wire 32 m s1 [31:0] $end
    $var wire 32 k s2 [31:0] $end
    $var wire  2 o sel [1:0] $end
    $var wire 32 E! size [31:0] $end
   $upscope $end
   $scope module m_PC $end
    $var wire  1 ~ clk $end
    $var wire 32 B! pc_i [31:0] $end
    $var wire 32 # pc_o [31:0] $end
    $var wire  1 !! rst $end
   $upscope $end
   $scope module m_Register $end
    $var wire  1 ~ clk $end
    $var wire 32 r readData1 [31:0] $end
    $var wire 32 s readData2 [31:0] $end
    $var wire  5 G readReg1 [4:0] $end
    $var wire  5 H readReg2 [4:0] $end
    $var wire  1 q regWrite $end
    $var wire 32 I regs[0] [31:0] $end
    $var wire 32 S regs[10] [31:0] $end
    $var wire 32 T regs[11] [31:0] $end
    $var wire 32 U regs[12] [31:0] $end
    $var wire 32 V regs[13] [31:0] $end
    $var wire 32 W regs[14] [31:0] $end
    $var wire 32 X regs[15] [31:0] $end
    $var wire 32 Y regs[16] [31:0] $end
    $var wire 32 Z regs[17] [31:0] $end
    $var wire 32 [ regs[18] [31:0] $end
    $var wire 32 \ regs[19] [31:0] $end
    $var wire 32 J regs[1] [31:0] $end
    $var wire 32 ] regs[20] [31:0] $end
    $var wire 32 ^ regs[21] [31:0] $end
    $var wire 32 _ regs[22] [31:0] $end
    $var wire 32 ` regs[23] [31:0] $end
    $var wire 32 a regs[24] [31:0] $end
    $var wire 32 b regs[25] [31:0] $end
    $var wire 32 c regs[26] [31:0] $end
    $var wire 32 d regs[27] [31:0] $end
    $var wire 32 e regs[28] [31:0] $end
    $var wire 32 f regs[29] [31:0] $end
    $var wire 32 K regs[2] [31:0] $end
    $var wire 32 g regs[30] [31:0] $end
    $var wire 32 h regs[31] [31:0] $end
    $var wire 32 L regs[3] [31:0] $end
    $var wire 32 M regs[4] [31:0] $end
    $var wire 32 N regs[5] [31:0] $end
    $var wire 32 O regs[6] [31:0] $end
    $var wire 32 P regs[7] [31:0] $end
    $var wire 32 Q regs[8] [31:0] $end
    $var wire 32 R regs[9] [31:0] $end
    $var wire  1 !! rst $end
    $var wire 32 i writeData [31:0] $end
    $var wire  5 n writeReg [4:0] $end
   $upscope $end
   $scope module m_ShiftLeftOne $end
    $var wire 32 & i [31:0] $end
    $var wire 32 ' o [31:0] $end
   $upscope $end
  $upscope $end
 $upscope $end
$enddefinitions $end


#0
b00000000000000000000000000000000 #
b00000000000000000000000000000100 $
b00000000000000000000000010010011 %
b00000000000000000000000000000000 &
b00000000000000000000000000000000 '
b00000000000000000000000000000000 (
b00000000000000000000000000000000 )
b00000000000000000000000000000000 *
b0000 +
1,
b00000000000000000000000000000000 -
b00000000000000000000000000000000 .
b00000000000000000000000000000000 /
b00000000000000000000000000000000 0
b00000000000000000000000000000000 1
b00000000000000000000000000000000 2
b00000000000000000000000000000000 3
b00000000000000000000000000000000 4
b00000000000000000000000000000000 5
b00000 6
b00000 7
b00 8
b00 9
b00 :
b000 ;
0<
0=
0>
0?
0@
0A
0B
0C
b000 D
b00000 E
b0000000 F
b00000 G
b00000 H
b00000000000000000000000000000000 I
b00000000000000000000000000000000 J
b00000000000000000000000000000000 K
b00000000000000000000000000000000 L
b00000000000000000000000000000000 M
b00000000000000000000000000000000 N
b00000000000000000000000000000000 O
b00000000000000000000000000000000 P
b00000000000000000000000000000000 Q
b00000000000000000000000000000000 R
b00000000000000000000000000000000 S
b00000000000000000000000000000000 T
b00000000000000000000000000000000 U
b00000000000000000000000000000000 V
b00000000000000000000000000000000 W
b00000000000000000000000000000000 X
b00000000000000000000000000000000 Y
b00000000000000000000000000000000 Z
b00000000000000000000000000000000 [
b00000000000000000000000000000000 \
b00000000000000000000000000000000 ]
b00000000000000000000000000000000 ^
b00000000000000000000000000000000 _
b00000000000000000000000000000000 `
b00000000000000000000000000000000 a
b00000000000000000000000000000000 b
b00000000000000000000000000000000 c
b00000000000000000000000000000000 d
b00000000000000000000000000000000 e
b00000000000000000000000000000000 f
b00000000000000000000000000000000 g
b00000000000000000000000000000000 h
b00000000000000000000000000000000 i
b00000000000000000000000000000000 j
b00000000000000000000000000000000 k
b00000000000000000000000000000000 l
b00000000000000000000000000000000 m
b00000 n
b00 o
0p
0q
b00000000000000000000000000000000 r
b00000000000000000000000000000000 s
b00 t
b00 u
b00 v
0w
1x
0y
0z
0{
0|
b0000000000 }
0~
1!!
b00000000000000000000000000000000 "!
b00000000000000000000000000000000 #!
b00000000000000000000000000000000 $!
b00000000000000000000000000000000 %!
b00000000000000000000000000000000 &!
b00000000000000000000000000000000 '!
b00000000000000000000000000000000 (!
b00000000000000000000000000000000 )!
b00000000000000000000000000000000 *!
b00000000000000000000000000000000 +!
b00000000000000000000000000000000 ,!
b00000000000000000000000000000000 -!
b00000000000000000000000000000000 .!
b00000000000000000000000000000000 /!
b00000000000000000000000000000000 0!
b00000000000000000000000000000000 1!
b00000000000000000000000000000000 2!
b00000000000000000000000000000000 3!
b00000000000000000000000000000000 4!
b00000000000000000000000000000000 5!
b00000000000000000000000000000000 6!
b00000000000000000000000000000000 7!
b00000000000000000000000000000000 8!
b00000000000000000000000000000000 9!
b00000000000000000000000000000000 :!
b00000000000000000000000000000000 ;!
b00000000000000000000000000000000 <!
b00000000000000000000000000000000 =!
b00000000000000000000000000000000 >!
b00000000000000000000000000000000 ?!
b00000000000000000000000000000000 @!
b00000000000000000000000000000000 A!
b00000000000000000000000000000100 B!
b00000000000000000000000000000000 C!
b00000000000000000000000000000100 D!
b00000000000000000000000000100000 E!
#1
b00000000000000000000000010000000 K
1~
0!!
b00000000000000000000000010000000 $!
#2
0~
1!!
#3
b00000000000000000000000000000100 #
b00000000000000000000000000001000 $
b00000000000100000000000100010011 %
b00000000000000000000000000000100 .
b00000000000000000000000010010011 /
b00001 E
b0010011 F
b01 u
1{
1|
b0000001011 }
1~
b00000000000000000000000000001000 B!
#4
0~
#5
b00000000000000000000000000001000 #
b00000000000000000000000000001100 $
b00000000000000000000000000010011 %
b00000000000000000000000000000001 &
b00000000000000000000000000000010 '
b00000000000000000000000000000101 (
b0010 +
b00000000000000000000000000000100 -
b00000000000000000000000000001000 .
b00000000000100000000000100010011 /
b00000000000000000000000000000100 0
b00001 6
b01 9
1>
1?
b00010 E
b00001 H
1~
b00000000000000000000000000001100 B!
#6
0~
#7
b00000000000000000000000000001100 #
b00000000000000000000000000010000 $
b00000000000000000000000000000000 &
b00000000000000000000000000000000 '
b00000000000000000000000000001000 (
b00000000000000000000000000000001 )
b00000000000000000000000000000001 *
0,
b00000000000000000000000000001000 -
b00000000000000000000000000001100 .
b00000000000000000000000000010011 /
b00000000000000000000000000001000 0
b00000000000000000000000000000001 3
b00000000000000000000000000000100 4
b00010 6
b00001 7
1B
b00000 E
b00000 H
1~
b00000000000000000000000000010000 B!
#8
0~
#9
b00000000000000000000000000010000 #
b00000000000000000000000000010100 $
b00000000000000000000000000001100 (
b00000000000000000000000000000000 )
b00000000000000000000000000000000 *
1,
b00000000000000000000000000001100 -
b00000000000000000000000000010000 .
b00000000000000000000000000001100 0
b00000000000000000000000000000000 3
b00000000000000000000000000001000 4
b00000 6
b00010 7
b00000000000000000000000000000001 j
b00000000000000000000000000000100 k
b00001 n
1q
1~
b00000000000000000000000000010100 B!
#10
0~
#11
b00000000000000000000000000010100 #
b00000000000000000000000000011000 $
b00000000001000001000000110110011 %
b00000000000000000000000000010000 (
b00000000000000000000000000010000 -
b00000000000000000000000000010100 .
b00000000000000000000000000010000 0
b00000000000000000000000000001100 4
b00000 7
b00000000000000000000000000000001 i
b00000000000000000000000000000000 j
b00000000000000000000000000001000 k
b00000000000000000000000000000001 l
b00010 n
1~
b00000000000000000000000000011000 B!
#12
b00000000000000000000000000000001 K
0~
b00000000000000000000000000000001 $!
#13
b00000000000000000000000000011000 #
b00000000000000000000000000011100 $
b00000000000000000000000000010011 %
b00000000000000000000000000010100 (
b00000000000000000000000000010100 -
b00000000000000000000000000011000 .
b00000000001000001000000110110011 /
b00000000000000000000000000010100 0
b00000000000000000000000000010000 4
b00011 E
b0110011 F
b00001 G
b00010 H
b00000000000000000000000000000000 i
b00000000000000000000000000001100 k
b00000000000000000000000000000000 l
b00000 n
b00000000000000000000000000000001 s
b11 u
1w
0x
0{
b0000011001 }
1~
b00000000000000000000000000011100 B!
#14
0~
#15
b00000000000000000000000000011100 #
b00000000000000000000000000100000 $
b00000000000000000000000000011000 (
b00000000000000000000000000000001 )
b00000000000000000000000000000001 *
0,
b00000000000000000000000000011000 -
b00000000000000000000000000011100 .
b00000000000000000000000000010011 /
b00000000000000000000000000011000 0
b00000000000000000000000000000001 2
b00000000000000000000000000010100 4
b00011 6
b11 9
0>
b00000 E
b0010011 F
b00000 G
b00000 H
b00000000000000000000000000010000 k
b00000000000000000000000000000000 s
b01 u
0w
1x
1{
b0000001011 }
1~
b00000000000000000000000000100000 B!
#16
0~
#17
b00000000000000000000000000100000 #
b00000000000000000000000000100100 $
b00000000000000000000000000011100 (
b00000000000000000000000000000000 )
b00000000000000000000000000000000 *
1,
b00000000000000000000000000011100 -
b00000000000000000000000000100000 .
b00000000000000000000000000011100 0
b00000000000000000000000000000000 2
b00000000000000000000000000011000 4
b00000000000000000000000000000001 5
b00000 6
b00011 7
b01 9
1>
b00000000000000000000000000000001 j
b00000000000000000000000000010100 k
1~
b00000000000000000000000000100100 B!
#18
0~
#19
b00000000000000000000000000100100 #
b00000000000000000000000000101000 $
b00000000000000010000000010010011 %
b00000000000000000000000000100000 (
b00000000000000000000000000100000 -
b00000000000000000000000000100100 .
b00000000000000000000000000100000 0
b00000000000000000000000000011100 4
b00000000000000000000000000000000 5
b00000 7
b00000000000000000000000000000001 i
b00000000000000000000000000000000 j
b00000000000000000000000000011000 k
b00000000000000000000000000000001 l
b00011 n
1~
b00000000000000000000000000101000 B!
#20
b00000000000000000000000000000001 L
0~
b00000000000000000000000000000001 %!
#21
b00000000000000000000000000101000 #
b00000000000000000000000000101100 $
b00000000000000011000000100010011 %
b00000000000000000000000000100100 (
b00000000000000000000000000100100 -
b00000000000000000000000000101000 .
b00000000000000010000000010010011 /
b00000000000000000000000000100100 0
b00000000000000000000000000100000 4
b00001 E
b00010 G
b00000000000000000000000000000000 i
b00000000000000000000000000011100 k
b00000000000000000000000000000000 l
b00000 n
b00000000000000000000000000000001 r
0x
1~
b00000000000000000000000000101100 B!
#22
0~
#23
b00000000000000000000000000101100 #
b00000000000000000000000000110000 $
b00000000000000000000000000010011 %
b00000000000000000000000000101000 (
b00000000000000000000000000000001 *
0,
b00000000000000000000000000101000 -
b00000000000000000000000000101100 .
b00000000000000011000000100010011 /
b00000000000000000000000000101000 0
b00000000000000000000000000000001 1
b00000000000000000000000000100100 4
b00001 6
b00010 E
b00011 G
b00000000000000000000000000100000 k
1~
b00000000000000000000000000110000 B!
#24
0~
#25
b00000000000000000000000000110000 #
b00000000000000000000000000110100 $
b00000000000000000000000000101100 (
b00000000000000000000000000101100 -
b00000000000000000000000000110000 .
b00000000000000000000000000010011 /
b00000000000000000000000000101100 0
b00000000000000000000000000101000 4
b00010 6
b00001 7
b00000 E
b00000 G
b00000000000000000000000000000001 j
b00000000000000000000000000100100 k
b00000000000000000000000000000000 r
1x
1~
b00000000000000000000000000110100 B!
#26
0~
#27
b00000000000000000000000000110100 #
b00000000000000000000000000111000 $
b00000000000000000000000000110000 (
b00000000000000000000000000000000 *
1,
b00000000000000000000000000110000 -
b00000000000000000000000000110100 .
b00000000000000000000000000110000 0
b00000000000000000000000000000000 1
b00000000000000000000000000101100 4
b00000 6
b00010 7
b00000000000000000000000000000001 i
b00000000000000000000000000101000 k
b00000000000000000000000000000001 l
b00001 n
1~
b00000000000000000000000000111000 B!
#28
b00000000000000000000000000000001 J
0~
b00000000000000000000000000000001 #!
#29
b00000000000000000000000000111000 #
b00000000000000000000000000111100 $
b00000000001000001000000110110011 %
b00000000000000000000000000110100 (
b00000000000000000000000000110100 -
b00000000000000000000000000111000 .
b00000000000000000000000000110100 0
b00000000000000000000000000110000 4
b00000 7
b00000000000000000000000000000000 j
b00000000000000000000000000101100 k
b00010 n
1~
b00000000000000000000000000111100 B!
#30
0~
#31
b00000000000000000000000000111100 #
b00000000000000000000000001000000 $
b00000000000000000000000000010011 %
b00000000000000000000000000111000 (
b00000000000000000000000000111000 -
b00000000000000000000000000111100 .
b00000000001000001000000110110011 /
b00000000000000000000000000111000 0
b00000000000000000000000000110100 4
b00011 E
b0110011 F
b00001 G
b00010 H
b00000000000000000000000000000000 i
b00000000000000000000000000110000 k
b00000000000000000000000000000000 l
b00000 n
b00000000000000000000000000000001 r
b00000000000000000000000000000001 s
b11 u
0{
b0000011001 }
1~
b00000000000000000000000001000000 B!
#32
0~
#33
b00000000000000000000000001000000 #
b00000000000000000000000001000100 $
b00000000000000000000000000111100 (
b00000000000000000000000000000001 )
b00000000000000000000000000000010 *
0,
b00000000000000000000000000111100 -
b00000000000000000000000001000000 .
b00000000000000000000000000010011 /
b00000000000000000000000000111100 0
b00000000000000000000000000000001 1
b00000000000000000000000000000001 2
b00000000000000000000000000111000 4
b00011 6
b11 9
0>
b00000 E
b0010011 F
b00000 G
b00000 H
b00000000000000000000000000110100 k
b00000000000000000000000000000000 r
b00000000000000000000000000000000 s
b01 u
1{
b0000001011 }
1~
b00000000000000000000000001000100 B!
#34
0~
#35
b00000000000000000000000001000100 #
b00000000000000000000000001001000 $
b00000000000000000000000001000000 (
b00000000000000000000000000000000 )
b00000000000000000000000000000000 *
1,
b00000000000000000000000001000000 -
b00000000000000000000000001000100 .
b00000000000000000000000001000000 0
b00000000000000000000000000000000 1
b00000000000000000000000000000000 2
b00000000000000000000000000111100 4
b00000000000000000000000000000001 5
b00000 6
b00011 7
b01 9
1>
b00000000000000000000000000000010 j
b00000000000000000000000000111000 k
1~
b00000000000000000000000001001000 B!
#36
0~
#37
b00000000000000000000000001001000 #
b00000000000000000000000001001100 $
b00000000000000010000000010010011 %
b00000000000000000000000001000100 (
b00000000000000000000000001000100 -
b00000000000000000000000001001000 .
b00000000000000000000000001000100 0
b00000000000000000000000001000000 4
b00000000000000000000000000000000 5
b00000 7
b00000000000000000000000000000010 i
b00000000000000000000000000000000 j
b00000000000000000000000000111100 k
b00000000000000000000000000000010 l
b00011 n
1~
b00000000000000000000000001001100 B!
#38
b00000000000000000000000000000010 L
0~
b00000000000000000000000000000010 %!
#39
b00000000000000000000000001001100 #
b00000000000000000000000001010000 $
b00000000000000011000000100010011 %
b00000000000000000000000001001000 (
b00000000000000000000000001001000 -
b00000000000000000000000001001100 .
b00000000000000010000000010010011 /
b00000000000000000000000001001000 0
b00000000000000000000000001000100 4
b00001 E
b00010 G
b00000000000000000000000000000000 i
b00000000000000000000000001000000 k
b00000000000000000000000000000000 l
b00000 n
b00000000000000000000000000000001 r
0x
1~
b00000000000000000000000001010000 B!
#40
0~
#41
b00000000000000000000000001010000 #
b00000000000000000000000001010100 $
b00000000000000000000000000010011 %
b00000000000000000000000001001100 (
b00000000000000000000000000000001 *
0,
b00000000000000000000000001001100 -
b00000000000000000000000001010000 .
b00000000000000011000000100010011 /
b00000000000000000000000001001100 0
b00000000000000000000000000000001 1
b00000000000000000000000001001000 4
b00001 6
b00010 E
b00011 G
b00000000000000000000000001000100 k
b00000000000000000000000000000010 r
1~
b00000000000000000000000001010100 B!
#42
0~
#43
b00000000000000000000000001010100 #
b00000000000000000000000001011000 $
b00000000000000000000000001010000 (
b00000000000000000000000000000010 *
b00000000000000000000000001010000 -
b00000000000000000000000001010100 .
b00000000000000000000000000010011 /
b00000000000000000000000001010000 0
b00000000000000000000000000000010 1
b00000000000000000000000001001100 4
b00010 6
b00001 7
b00000 E
b00000 G
b00000000000000000000000000000001 j
b00000000000000000000000001001000 k
b00000000000000000000000000000000 r
1x
1~
b00000000000000000000000001011000 B!
#44
0~
#45
b00000000000000000000000001011000 #
b00000000000000000000000001011100 $
b00000000000000000000000001010100 (
b00000000000000000000000000000000 *
1,
b00000000000000000000000001010100 -
b00000000000000000000000001011000 .
b00000000000000000000000001010100 0
b00000000000000000000000000000000 1
b00000000000000000000000001010000 4
b00000 6
b00010 7
b00000000000000000000000000000001 i
b00000000000000000000000000000010 j
b00000000000000000000000001001100 k
b00000000000000000000000000000001 l
b00001 n
1~
b00000000000000000000000001011100 B!
#46
0~
#47
b00000000000000000000000001011100 #
b00000000000000000000000001100000 $
b00000000001000001000000110110011 %
b00000000000000000000000001011000 (
b00000000000000000000000001011000 -
b00000000000000000000000001011100 .
b00000000000000000000000001011000 0
b00000000000000000000000001010100 4
b00000 7
b00000000000000000000000000000010 i
b00000000000000000000000000000000 j
b00000000000000000000000001010000 k
b00000000000000000000000000000010 l
b00010 n
1~
b00000000000000000000000001100000 B!
#48
b00000000000000000000000000000010 K
0~
b00000000000000000000000000000010 $!
#49
b00000000000000000000000001100000 #
b00000000000000000000000001100100 $
b00000000000000000000000000000000 %
b00000000000000000000000001011100 (
b00000000000000000000000001011100 -
b00000000000000000000000001100000 .
b00000000001000001000000110110011 /
b00000000000000000000000001011100 0
b00000000000000000000000001011000 4
b00011 E
b0110011 F
b00001 G
b00010 H
b00000000000000000000000000000000 i
b00000000000000000000000001010100 k
b00000000000000000000000000000000 l
b00000 n
b00000000000000000000000000000001 r
b00000000000000000000000000000010 s
b11 u
1w
0x
0{
b0000011001 }
1~
b00000000000000000000000001100100 B!
#50
0~
#51
b00000000000000000000000001100100 #
b00000000000000000000000001101000 $
b00000000000000000000000001100000 (
b00000000000000000000000000000010 )
b00000000000000000000000000000011 *
0,
b00000000000000000000000001100000 -
b00000000000000000000000001100100 .
b00000000000000000000000000000000 /
b00000000000000000000000001100000 0
b00000000000000000000000000000001 1
b00000000000000000000000000000010 2
b00000000000000000000000001011100 4
b00011 6
b11 9
0>
b00000 E
b0000000 F
b00000 G
b00000 H
b00000000000000000000000001011000 k
b00000000000000000000000000000000 r
b00000000000000000000000000000000 s
b00 u
0w
1x
0|
b0000000000 }
1~
b00000000000000000000000001101000 B!
#52
0~
#53
b00000000000000000000000001101000 #
b00000000000000000000000001101100 $
b00000000000000000000000001100100 (
b00000000000000000000000000000000 )
b00000000000000000000000000000000 *
b0000 +
1,
b00000000000000000000000001100100 -
b00000000000000000000000001101000 .
b00000000000000000000000001100100 0
b00000000000000000000000000000000 1
b00000000000000000000000000000000 2
b00000000000000000000000001100000 4
b00000000000000000000000000000010 5
b00000 6
b00011 7
b00 9
0?
b00000000000000000000000000000011 j
b00000000000000000000000001011100 k
1~
b00000000000000000000000001101100 B!
#54
0~
